…
```r
SNP_data %>%
  arrange(desc(odds_ratio))
```

```
## # A tibble: 422 x 12
##    snp_id      p_value chr_id chr_position submitted_snp_id allele1 allele2
##    <chr>         <dbl>  <dbl>        <dbl> <chr>            <chr>   <chr>  
##  1 rs12581238 0.00414      12     22976812 ss67021887       T       C      
##  2 rs4326095  0.000626      5     58804536 ss67327073       G       A      
##  3 rs4551023  0.000574      5     58801290 ss67345223       C       T      
##  4 rs7728286  0.00206       5     58818721 ss67823328       C       T      
##  5 rs7733296  0.00492       5     58838137 ss67823910       T       C      
##  6 rs11653892 0.0426       17     48510879 ss66941285       A       G      
##  7 rs7712329  0.00291       5     58815659 ss67821192       C       T      
##  8 rs9843168  0.00755       3     69513197 ss67951107       C       T      
##  9 rs9458781  0.0130        6    163721183 ss67919497       A       G      
## 10 rs1870077  0.0109        5     58834851 ss67201344       A       G      
## # ... with 412 more rows, and 5 more variables: p_hwe_case <dbl>,
## #   p_hwe_control <dbl>, call_rate_case <dbl>, call_rate_control <dbl>,
## #   odds_ratio <dbl>
```



```r
SNP_data %>%
  group_by(chr_id) %>%
  summarise(n_distinct(snp_id))
```

```
## # A tibble: 21 x 2
##    chr_id `n_distinct(snp_id)`
##  *  <dbl>                <int>
##  1      1                   61
##  2      2                   28
##  3      3                   47
##  4      4                   21
##  5      5                   40
##  6      6                   21
##  7      7                   18
##  8      8                   18
##  9      9                   14
## 10     10                   15
## # ... with 11 more rows
```
…
