…
```
## See spec(...) for full column specifications.
```

```r
cancer_general_data <- janitor::clean_names(cancer_general_data)
cancer_general_data
```

```
## # A tibble: 4,744 x 161
##    cancer_site year  tumour_type tumour_type_2 tumour_type_3 basis_of_diagno…
##    <chr>       <chr> <chr>       <chr>         <chr>         <chr>           
##  1 Bladder, U… 2013  All         All           All           Not split by Ba…
##  2 Bladder, U… 2013  Renal Pelv… All           All           Not split by Ba…
##  3 Bladder, U… 2013  Renal Pelv… Malignant an… All           Not split by Ba…
##  4 Bladder, U… 2013  Renal Pelv… Malignant an… All           Not split by Ba…
##  5 Bladder, U… 2013  Renal Pelv… Malignant an… All           Not split by Ba…
##  6 Bladder, U… 2013  Renal Pelv… Malignant an… All           Not split by Ba…
##  7 Bladder, U… 2013  Renal Pelv… Malignant an… All           Not split by Ba…
##  8 Bladder, U… 2013  Renal Pelv… Malignant an… All           Not split by Ba…
##  9 Bladder, U… 2013  Renal Pelv… Malignant an… All           Not split by Ba…
## 10 Bladder, U… 2013  Renal Pelv… Malignant an… All           Not split by Ba…
## # … with 4,734 more rows, and 155 more variables: stage <chr>,
## #   stage_detail <chr>, stage_detail_2 <chr>, age <chr>, region <chr>,
## #   sex <chr>, grade <chr>, nodal_status <chr>, incidence <dbl>,
## #   population <dbl>, incidence_rate <dbl>,
## #   incidence_rate_lci_95_percent <dbl>, incidence_rate_uci_95_percent <dbl>,
## #   ct_count <chr>, ct_cohort <chr>, ct_percentage <chr>,
## #   ct_percentage_lci_95_percent <chr>, ct_percentage_uci_95_percent <chr>,
## #   rt_count <chr>, rt_cohort <chr>, rt_percentage <chr>,
## #   rt_percentage_lci_95_percent <chr>, rt_percentage_uci_95_percent <chr>,
…
### Cleaning up the data so that missing values are stored as NAs. The full description of inputs for missing values is reflected in the file GDO_missing.csv. 

```r
cancer_general_data_clean <- cancer_general_data %>%
  na_if(".a") %>%
  na_if(".b") %>% na_if(".c") %>% na_if(".d") %>% na_if(".e") %>% na_if(".f") %>% na_if(".g") %>% na_if(".h") %>% na_if(".i") %>% na_if(".j")%>% na_if(".k")%>% na_if(".m") %>%
  filter(tumour_type == "Benign endocrine" | tumour_type =="Carcinoma and Other" | tumour_type =="Malignant brain" | tumour_type =="Malignant epithelial" |  tumour_type =="Non-malignant brain" | tumour_type =="Neuroendocrine")
cancer_general_data_clean
```

```
## # A tibble: 1,288 x 161
##    cancer_site year  tumour_type tumour_type_2 tumour_type_3 basis_of_diagno…
##    <chr>       <chr> <chr>       <chr>         <chr>         <chr>           
##  1 Brain, men… 2013  Malignant … All           All           Not split by Ba…
##  2 Brain, men… 2013  Malignant … All           All           Not split by Ba…
##  3 Brain, men… 2013  Malignant … All           All           Not split by Ba…
##  4 Brain, men… 2013  Malignant … All           All           Not split by Ba…
##  5 Brain, men… 2013  Malignant … All           All           Not split by Ba…
##  6 Brain, men… 2013  Malignant … All           All           Not split by Ba…
##  7 Brain, men… 2013  Malignant … All           All           Not split by Ba…
##  8 Brain, men… 2013  Malignant … All           All           Not split by Ba…
##  9 Brain, men… 2013  Malignant … All           All           Not split by Ba…
## 10 Brain, men… 2013  Malignant … All           All           Not split by Ba…
## # … with 1,278 more rows, and 155 more variables: stage <chr>,
## #   stage_detail <chr>, stage_detail_2 <chr>, age <chr>, region <chr>,
## #   sex <chr>, grade <chr>, nodal_status <chr>, incidence <dbl>,
## #   population <dbl>, incidence_rate <dbl>,
## #   incidence_rate_lci_95_percent <dbl>, incidence_rate_uci_95_percent <dbl>,
## #   ct_count <chr>, ct_cohort <chr>, ct_percentage <chr>,
## #   ct_percentage_lci_95_percent <chr>, ct_percentage_uci_95_percent <chr>,
## #   rt_count <chr>, rt_cohort <chr>, rt_percentage <chr>,
## #   rt_percentage_lci_95_percent <chr>, rt_percentage_uci_95_percent <chr>,
…
```
## `summarise()` regrouping output by 'stage' (override with `.groups` argument)
```

```r
cancer_specific
```

```
## # A tibble: 136 x 6
## # Groups:   stage [4]
##    stage      tumour_type tumour_type_2   tumour_type_3 incidence incidence_rate
##    <chr>      <chr>       <chr>           <chr>             <dbl>          <dbl>
##  1 All stages Bladder     Malignant and … Urothelial        16609           30.1
##  2 All stages Bladder     Malignant and … Urothelial        49280           29.7
##  3 All stages Bladder     Malignant and … Urothelial        48824           29.7
##  4 All stages Bladder     Malignant and … Urothelial        16250           29.7
##  5 All stages Bladder     Malignant and … Urothelial        16421           29.5
##  6 All stages Bladder     Malignant and … Urothelial        15965           29.4
##  7 All stages Bladder     Malignant and … Urothelial        47751           29.3
##  8 All stages Bladder     Malignant and … Urothelial        15536           28.8
##  9 Non-muscl… Bladder     Malignant and … Urothelial        12276           22.2
## 10 Non-muscl… Bladder     Malignant and … Urothelial        36038           21.8
## # … with 126 more rows
```
…
## Relation between age at diagnosis and overall survival rate (among 622 deaths)


```r
breast_cancer_clean %>%
  filter(death_from_cancer == "Died of Disease")
```

```
## # A tibble: 622 x 32
##    patient_id age_at_diagnosis type_of_breast_… cancer_type cancer_type_det…
##         <dbl>            <dbl> <chr>            <chr>       <chr>           
##  1          5             48.9 MASTECTOMY       Breast Can… Breast Invasive…
##  2          8             77.0 MASTECTOMY       Breast Can… Breast Mixed Du…
##  3         10             78.8 MASTECTOMY       Breast Can… Breast Invasive…
##  4         35             84.2 MASTECTOMY       Breast Can… Breast Invasive…
##  5         36             85.5 MASTECTOMY       Breast Can… Breast Invasive…
##  6         79             50.4 MASTECTOMY       Breast Can… Breast Invasive…
##  7         83             64.8 BREAST CONSERVI… Breast Can… Breast Invasive…
##  8        100             68.7 MASTECTOMY       Breast Can… Breast Invasive…
##  9        102             51.4 MASTECTOMY       Breast Can… Breast Invasive…
## 10        108             43.2 BREAST CONSERVI… Breast Can… Breast Invasive…
## # … with 612 more rows, and 27 more variables: cellularity <chr>,
## #   chemotherapy <dbl>, `pam50_+_claudin-low_subtype` <chr>, cohort <dbl>,
## #   er_status_measured_by_ihc <chr>, er_status <chr>,
## #   neoplasm_histologic_grade <dbl>, her2_status_measured_by_snp6 <chr>,
## #   her2_status <chr>, tumor_other_histologic_subtype <chr>,
## #   hormone_therapy <dbl>, inferred_menopausal_state <chr>,
## #   integrative_cluster <chr>, primary_tumor_laterality <chr>,
## #   lymph_nodes_examined_positive <dbl>, mutation_count <dbl>,
## #   nottingham_prognostic_index <dbl>, oncotree_code <chr>,
…
```r
SNP_data %>%
  arrange(desc(odds_ratio))
```

```
## # A tibble: 422 x 12
##    snp_id p_value chr_id chr_position submitted_snp_id allele1 allele2
##    <chr>    <dbl>  <dbl>        <dbl> <chr>            <chr>   <chr>  
##  1 rs125… 4.14e-3     12     22976812 ss67021887       T       C      
##  2 rs432… 6.26e-4      5     58804536 ss67327073       G       A      
##  3 rs455… 5.74e-4      5     58801290 ss67345223       C       T      
##  4 rs772… 2.06e-3      5     58818721 ss67823328       C       T      
##  5 rs773… 4.92e-3      5     58838137 ss67823910       T       C      
##  6 rs116… 4.26e-2     17     48510879 ss66941285       A       G      
##  7 rs771… 2.91e-3      5     58815659 ss67821192       C       T      
##  8 rs984… 7.55e-3      3     69513197 ss67951107       C       T      
##  9 rs945… 1.30e-2      6    163721183 ss67919497       A       G      
## 10 rs187… 1.09e-2      5     58834851 ss67201344       A       G      
## # … with 412 more rows, and 5 more variables: p_hwe_case <dbl>,
## #   p_hwe_control <dbl>, call_rate_case <dbl>, call_rate_control <dbl>,
## #   odds_ratio <dbl>
```



```r
SNP_data %>%
  group_by(chr_id) %>%
  summarise(n_distinct(snp_id))
```

```
## `summarise()` ungrouping output (override with `.groups` argument)
```

```
## # A tibble: 21 x 2
##    chr_id `n_distinct(snp_id)`
##     <dbl>                <int>
##  1      1                   61
##  2      2                   28
##  3      3                   47
##  4      4                   21
##  5      5                   40
##  6      6                   21
##  7      7                   18
##  8      8                   18
##  9      9                   14
## 10     10                   15
## # … with 11 more rows
```
…
