…
## Relation between age at diagnosis and overall survival rate (among 622 deaths)


```r
breast_cancer_clean %>%
  filter(death_from_cancer == "Died of Disease")
```

```
## # A tibble: 622 x 32
##    patient_id age_at_diagnosis type_of_breast_… cancer_type cancer_type_det…
##         <dbl>            <dbl> <chr>            <chr>       <chr>           
##  1          5             48.9 MASTECTOMY       Breast Can… Breast Invasive…
##  2          8             77.0 MASTECTOMY       Breast Can… Breast Mixed Du…
##  3         10             78.8 MASTECTOMY       Breast Can… Breast Invasive…
##  4         35             84.2 MASTECTOMY       Breast Can… Breast Invasive…
##  5         36             85.5 MASTECTOMY       Breast Can… Breast Invasive…
##  6         79             50.4 MASTECTOMY       Breast Can… Breast Invasive…
##  7         83             64.8 BREAST CONSERVI… Breast Can… Breast Invasive…
##  8        100             68.7 MASTECTOMY       Breast Can… Breast Invasive…
##  9        102             51.4 MASTECTOMY       Breast Can… Breast Invasive…
## 10        108             43.2 BREAST CONSERVI… Breast Can… Breast Invasive…
## # … with 612 more rows, and 27 more variables: cellularity <chr>,
## #   chemotherapy <dbl>, `pam50_+_claudin-low_subtype` <chr>, cohort <dbl>,
## #   er_status_measured_by_ihc <chr>, er_status <chr>,
## #   neoplasm_histologic_grade <dbl>, her2_status_measured_by_snp6 <chr>,
## #   her2_status <chr>, tumor_other_histologic_subtype <chr>,
## #   hormone_therapy <dbl>, inferred_menopausal_state <chr>,
## #   integrative_cluster <chr>, primary_tumor_laterality <chr>,
## #   lymph_nodes_examined_positive <dbl>, mutation_count <dbl>,
## #   nottingham_prognostic_index <dbl>, oncotree_code <chr>,
…
